1:
3.6831603124995573
3.2830758957405117
3.590526568166152
4.7079280547764775
3.6947042519313555
3.89859956538236
3.3828762949421085
3.6934564997202655
4.027320739386553
3.5143048663706797
2.961231273297087
3.5844266825390076
3.968461880527694
3.9915719471160216
2.776815688881502
3.938431850497664
3.5810256968829797
4.504088416154229
4.126466038531852
4.176527088592902
3.0703762949421085
5.0495429616087755
3.520011393380669
10:
2.890063550906924
2.6353281547241596
1000:
3.1814327485380116
2.8720893141945774
2.5842105263157893
4.58421052631579
3.7115990613476364
3.340967283072546
3.2092105263157893
3.8716121011189393
2.930272578821756
2.442478242851222
3.2263157894736842
3.4735094193047193
3.18079396915416
4.268421052631579
3.8592105263157896
2.9795593635250914
2.9448662640207073
2.9722702278083264
3.1340888718145727
3.5842105263157893
3.3175438596491227
3.8584040747028863
2.319504643962848
2.9916179337231967
3.998003629764065
3.0323159628891005
3.556303549571603
10000:
3.608575581395349
3.4624411883317654
10001:
3.3954641350210966
4.2924095679985586
3.7102956633002786
2.6963900609470226
4.3180831826401445
3.4223159868729485
3.441246028025212
3.97879746835443
3.9298844248761693
3.5309819343738473
4.120519876381186
4.135376415722851
2.90379746835443
4.172290619039361
3.6091655665139393
3.4594746229371935
4.3720901512812596
10002:
4.2490233567589915
3.2834059233449473
4.69577266108482
3.978253698520591
10003:
2.3812897196261678
10004:
5.055295010473365
4.080331829324617
4.3003143008408315
3.884903257896046
4.664682152368408
4.3062888788110785
4.432567380033451
4.286681035673824
4.268903257896046
4.204555431809089
4.368492298991937
3.9258643886380953
4.268903257896046
3.8541413531341413
4.397792146784935
4.3151048082836425
4.415153257896046
4.408903257896046
4.599469295631895
4.006548469826972
4.236175985168773
4.0030209049548695
4.046809395080162
4.124287873280661
5.2946175436103315
3.8051995541923422
4.145266894259683
4.34223659122938
3.458903257896046
4.791161322412175
4.532999643438215
10005:
3.512832834648049
3.975082889581031
3.1981309376290787
2.8573279497672672
2.9629355774337185
10006:
3.712382629107981
3.137474785678265
3.9008333333333334
2.6269458027709858
10007:
2.046037412537484
2.6510906040268454
2.2241994601154063
2.2332094381075627
2.005257270693512
2.4921339111134597
2.118590604026845
2.8385906040268454
2.429499694935936
2.744630872483221
2.2285906040268455
2.53303504847129
2.3045769985846687
10008:
4.652380952380952
3.189247311827957
3.455952380952381
2.654802259887006
4.176744186046511
3.938095238095238
3.914285714285714
10009:
2.9462449756716733
3.3600652376514444
4.519628647214854
2.611627101022353
2.5184518851685267
3.2632183908045973
1001:
4.331500414479137
3.341352631227906
2.941352631227906
3.0875779889123525
3.9236663130966494
3.906103589082312
3.6324818757659423
3.338759415640578
2.585144729347942
3.5794788511368196
3.5263056092843326
3.7703154753872217
2.8304244336812565
3.4881824421289074
3.2972147001934236
3.2040568054565814
3.902928985907709
3.702928985907709
2.8150168979956214
3.0382673317723707
2.831500414479138
3.6368225433306782
3.215345541314919
2.6580310267240357
3.4264252265092128
2.936363636363636
3.5035783365570596
3.525998483977207
3.6172147001934234
4.067858477017458
3.564927118494077
4.617214700193424
2.8568841216810266
3.36091217918502
3.337644807720305
3.3607441119581294
3.97435755733628
2.6172147001934234
2.6689081048280046
3.6207234721232475
3.8630247560593456
2.9135109964897197
3.5297147001934235
3.8992659822447053
3.990165519865555
3.574661508704062
3.2572147001934235
3.0390897001934234
3.0888235330009945
3.9701558766640113
3.0672147001934236
2.2365440887535812
2.417214700193423
3.575548033526757
3.6919810553336103
4.0616591446378685
2.7968554187562975
3.3452387422670524
3.4498677614179134
3.0510608540395774
3.31418439716312
3.0172147001934233
2.9965250450210097
2.8389720223691555
3.894323133928363
2.8190495625787446
2.708123791102514
2.88388136686009
3.889941972920696
3.3828397001934234
2.8728057545065226
3.035819351356214
3.4280255110042344
2.86661517980973
2.9981670811458043
3.630548033526757
2.5119515422986867
2.5741683425775292
3.4198902854777042
3.4331142817833817
3.6172147001934234
3.894671347592267
2.449512836839386
3.5216264648993056
3.328926411905135
3.2134588316488224
3.251830084808808
3.95544999431107
3.236092705536255
2.760071843050566
3.9505480335267564
3.3791194620981853
3.545142628121351
3.6814348836796618
3.0061035890823122
2.6172147001934234
2.9965250450210097
3.061659144637868
3.1927960955422607
3.331500414479138
3.450548033526757
3.364962447941171
2.950548033526757
2.914253027719556
3.355506711212707
3.3359647001934234
3.566950149928873
3.650213265473194
3.555486305131695
2.609581112407164
2.9113323472522468
3.251017517094832
3.285889398988604
2.8966264648993056
3.28388136686009
2.5797147001934233
2.909807292786016
3.7399301048931624
3.6039696670808405
2.9529289859077092
3.188643271621995
3.3686271295719545
3.1122642051439184
3.3672147001934234
3.1468004990099914
3.252508817840482
2.950548033526757
3.7049339984390373
3.3114150516872725
3.0904747734534967
3.350548033526757
3.6284191819861404
3.5061035890823122
3.0849566356772944
10010:
2.2062625675856826
1.999068322981366
2.039977413890457
2.8755389112166605
2.588723495395159
2.1709784353409165
2.3167153818048956
2.099068322981366
1.6384622623753056
2.4426580665711097
1.8105548094678525
1.7931859700401898
1.9325438027255024
1.6284161490683227
2.779528093096309
2.0977821493479256
1.8240683229813661
2.5570070416443187
1.1689478410536553
2.167153429364345
1.6034342273472704
1.7745400210945736
1.8523811118873752
10011:
4.40427301947438
4.04781976744186
10012:
3.0246100634281774
3.9455883710335833
2.889548324987607
3.0196869549324137
3.6152993892281104
3.695552273425651
2.3831499581894047
3.2059601496563124
2.9075895919937196
3.2200531564010766
3.671479321220824
3.0072968246771983
2.8835228736706493
10013:
3.5077704080141174
3.1714453882243903
3.4674200420496684
3.6180323557735057
3.2279029919599314
3.366079630136569
3.1597318288520593
3.4964215104784495
3.1646605041891416
3.7191557654707688
2.8042446397301504
3.917047005331973
3.151807245558508
3.5503430791059007
2.9571494798271085
3.1511834152403546
2.806540558097497
3.025077636960663
3.274491685917046
2.730663934720874
2.9197749039923244
2.597611986668926
3.1031662150492414
3.5401795542364933
3.5545976111073805
3.097298703460906
3.260659366424848
2.4861093588619503
2.730081641197404
3.2168739573851903
3.0243055130278442
2.679005780141371
2.854754843811783
3.701511330837731
3.0092026965725194
2.8719922867341574
3.2966727667598565
3.8738724908706064
3.6877462045029277
2.6623994719109567
3.966495175303496
3.179754843811783
3.3708659549228943
3.2704764932963193
3.3670130918208843
2.6488792677749164
3.1438574079143473
3.347896436732137
2.856880943518528
3.4827198033805162
2.912727816784756
3.026476155287193
3.4664862353975434
3.720105721004766
3.200786589843529
2.571046570952567
3.7256434379762395
10014:
3.026969638117434
3.9223454949781287
2.509273223167014
3.533548585485855
2.9993446053863524
10015:
3.7257644135692916
3.2137526769105715
2.8302940302940303
3.4442419738664523
3.836841649341649
3.4312257073126635
4.004897204897205
3.7826749826749824
3.813109765283678
3.2915808350922853
3.903508316008316
3.596008316008316
3.366008316008316
4.049341649341649
4.049341649341649
3.391237673806481
3.6949556844293685
4.092198792198792
3.6779418507515182
4.079107947004626
5.101082942873987
4.0666255999589325
4.568237615371373
2.7826749826749824
3.116008316008316
3.2464430986170116
4.077546777546777
3.625325086194651
10016:
2.6537433155080214
1.8472618340265399
2.148187759952466
2.7757863262607096
3.592092830071128
10017:
3.0021428571428572
3.346658986175115
3.0599206349206347
10018:
4.65777649399833
3.8046475029383053
2.777602202059333
2.9983765877629813
3.3607117944440046
3.7007394569612937
3.4826987444931006
3.19757160826153
2.280603402539525
3.8836502550833596
3.481850568072405
3.8874061236279602
3.829072790294627
3.710072790294627
3.2161128001736095
3.6058299787930297
3.360852451311576
3.554072790294627
3.36583749617698
3.554072790294627
3.440739456961294
3.141572790294627
3.9752368114586485
4.0726410229568195
3.3222546084764453
3.911418761858608
3.5074708485470545
3.796178053452522
3.6491547575077417
4.030543378529921
10019:
3.3730285688536408
3.025477893177965
3.6874549387166544
2.942532879198468
4.2968982497047055
4.174021785907904
3.4511535688536408
2.566538184238256
3.73524447794455
3.265324691848293
4.407035921794817
2.8696928946963376
2.911363779063851
3.177344045044117
3.7011535688536408
3.5292292786328208
3.7898907702188285
3.428426296126368
3.2949035688536408
4.3549997226997945
3.7011535688536408
3.7428202355203077
3.711254578954651
3.489032356732429
3.866153568853641
3.792756622288755
3.0396151073151794
3.185643967671957
3.2232774626589507
3.7011535688536408
3.290584463162584
3.316538184238256
3.7011535688536408
3.9319227996228716
3.188333056033128
3.9608938285939
2.2920626597627316
3.5814024024461757
3.8842521604029367
3.901153568853641
3.9687592026564578
4.1556990233990945
3.591224490839456
3.786867854567926
4.1511535688536405
2.873305467587818
3.7467809452794962
4.108050120577779
3.844010711710784
3.5729092940444804
2.9900424577425295
3.1806716411427973
3.7934612611613328
3.203974443324727
3.2725821402822124
2.304927153759301
2.7619900707547815
3.123375791075863
4.307214174914247
3.129724997425069
2.813870331859421
3.3113230603790647
3.239615107315179
3.299444167144239
3.790808741267434
4.701153568853641
3.2990917131835378
4.687264679964752
3.502829546507272
1002:
3.128320802005012
2.729186602870813
3.2746411483253586
3.4487042989152266
3.3029239766081866
3.547368421052631
3.828669234060761
2.3473684210526313
3.3734945471787574
3.3706078576723497
3.9779383692391597
3.4296379245987305
3.2473684210526312
2.9695906432748536
10020:
3.909979837447245
4.075354514449829
3.6837051010612853
4.2150684858469685
3.876008109221071
3.660321834711267
3.9064202740870173
4.287160070005385
4.235932901055613
3.966526508361549
3.9086878477831624
4.91662435571967
3.7475767366720514
4.034135876456998
3.9544394817700907
3.9140426001258666
4.26114262814492
3.5706761518767296
4.169126630514939
3.567273706369021
4.394067964742227
3.3514983052995024
3.7779688935347964
3.714243403338718
3.264243403338718
2.464243403338718
4.212877283120139
10021:
1.94756671899529
2.3990929705215414
2.4635783147614867
2.060204081632653
10022:
2.108130542477357
3.165611875643836
2.8689442892677977
2.6498339173269256
3.199170855911732
3.1926451075786346
2.478173284456473
2.509833427214935
10023:
3.9527777777777775
3.835130718954248
3.8726996527777775
3.5194444444444444
4.7753584229390675
3.5235094850948507
3.2693716642406594
3.794883040935672
3.4489609838846476
3.909299516908212
4.377435312024353
10024:
3.4574209221907664
3.9305897431856742
3.2483523494858297
3.7829237506005713
3.405110547299746
3.038889109127703
3.0149639197337637
3.1498627945870807
3.6500514409082414
3.668867663049272
10025:
2.830778032036613
10027:
4.549047295792657
3.674150995809249
3.581668663807417
3.6984377450416637
2.9996275278854942
3.6156989564569226
3.4990006642368088
4.2366454119622015
3.330509880826671
4.122928893041221
3.770046221678801
3.825623597955313
4.026322688708444
3.3224580629051133
3.8825843034100753
4.315399990716781
3.604669544692217
4.066120144349556
4.206661954559389
3.942081309398099
3.5133916542256856
4.1790251296228185
3.8050264669243536
3.646276431349319
4.25643425057457
4.048554993608626
4.382308259752709
4.502136864953655
4.6674146427314325
4.518696694013484
4.573105699642002
4.070444945761736
3.2758135928626664
3.6566038319206218
4.055282059867142
4.520942623266713
4.717414642731432
4.055133940977047
4.104669544692217
3.5477435484872832
4.1999838881946605
4.17462184993864
5.067414642731433
3.735530584760418
3.6512603329062365
4.287365980930946
4.0932649828674865
3.9371116124284025
4.379206657587514
4.334503250326369
3.8894576534841208
4.290944054496139
3.681061175169911
3.5920252346317443
3.479358182362269
4.24982205013884
3.526938452255242
3.572743019435274
4.3983670236838135
4.219187692376822
3.6373280626448525
3.6594096396044784
3.291314013800615
3.2280410409417235
4.532890833207623
4.915061136487436
3.2554978355363793
4.144950874615491
3.3007479760647658
4.26643425057457
4.187652737969528
4.155433622565359
3.9922631275799176
3.8007479760647658
4.542244574704221
3.9811887474146284
4.278466336136067
4.1272785883096645
2.9431265355287524
3.7183652130736378
4.752502362029678
4.872176547493337
2.9885652349480147
3.776938452255242
4.057158232475022
4.316324300052305
3.8156211169221588
4.086712888345468
10028:
2.7839947089947086
3.0289442039442034
2.7054417374184814
3.7857041107041103
3.925057510927076
2.6460399400664882
4.094066541487448
10029:
2.9705802151189213
3.883623693379791
3.7540900146233147
2.7695886056604926
10031:
3.2132247063281545
2.568650530503979
3.4682671322566563
2.4063288994323475
3.9006223130806004
2.815298688683827
2.617344369850473
2.2467732178053588
2.609760374050263
10032:
3.056741407067628
4.805962590868251
4.172629257534918
4.2829740851211255
4.071456728221685
2.6979693935893394
3.4974105986427895
3.3641955225951587
3.808245695891082
2.409604047450884
3.158196267844196
4.211759692317527
4.705962590868252
3.4432174928290356
4.111666690689997
2.762752714325041
3.666506808555326
3.4309625908682513
3.437541538236672
3.6551689400746
3.177757462663123
3.5053395379087497
3.276884576683854
3.5154864003920605
3.553570002800648
3.035129257534918
3.4345167348488923
3.4898706368452626
4.176019088043393
3.190020561882744
3.564557508655994
3.781040472488189
4.112164141255848
3.7583435432492034
3.3726292575349177
3.995670732189296
3.2779727689852995
3.2513903194818203
3.396871681777342
3.367928402834063
3.498945047008602
3.621066757534918
3.379772114677775
2.9871220111581063
3.357843265317019
3.5830188679245283
3.9458251338235777
10033:
3.576940105149297
3.2510141792233704
2.313448041657233
3.327733755942947
3.1733558757586158
2.592710714468293
2.999162327371519
2.7627986910078826
3.2056139402747448
2.827733755942947
3.3804707385864723
3.1176089293132665
4.399162327371519
3.637257565466757
10034:
1.6163449163449162
2.313784461152882
10035:
2.601340625625292
4.6538307442023665
4.77673697320707
4.270473818014298
4.471470495755162
4.377393840702897
3.6452466194310853
3.5379156784794143
3.7786133528980193
3.425684001950288
4.049043460424901
3.819989359030637
4.057426912220053
4.200613352898019
3.8975788701393985
3.924658550638132
4.046113352898018
4.1714704957551625
4.276530019564685
5.244501203365309
10036:
3.2808650594268998
3.377965235173824
3.56600558099515
3.3279652351738243
3.9057430129516018
3.6073978592872993
3.032566806442062
3.7452937550294196
2.8422509494595385
3.095895264328343
3.324773745812122
3.645206614484169
4.044631901840491
3.9353046847151085
4.60164944570014
4.0279652351738235
3.6965926861542164
3.996386287805403
2.5950704983317188
3.0809064116444125
3.770822378030967
3.377965235173824
4.247582460054207
3.986788764585589
3.9643288715374605
4.227965235173824
3.9461470533556424
3.829006901840491
3.895897724625301
3.0051582176299645
3.667027735173824
3.113576745965191
2.9933498505584395
3.499497201398191
3.3601927233254827
3.4983356055441943
3.7873058945144833
3.7408684609802756
3.527158783560921
3.911404725619684
3.397628156522139
3.877965235173824
4.2851080923166815
4.058520790729379
3.927965235173824
4.107557071908518
4.661298568507157
4.594631901840491
3.1636795208881097
4.090928198136787
3.301062211190508
3.8097834169920057
3.810822378030967
3.055501467057882
3.6344587416673306
4.359446716655306
3.1801391482173025
4.91367952088811
3.406912603594877
4.079099615627577
3.877965235173824
4.417774152371276
3.2490661526050166
4.469298568507157
3.2729466478132294
4.525225509146427
3.5795781383996306
4.127965235173824
3.855237962446551
4.007845115053704
4.693182626478172
4.028627486829453
3.8439415665347707
3.3173591745677635
3.9729264754839018
4.258173568507157
4.097965235173824
3.2772189665171076
4.127965235173824
4.138381901840491
3.727965235173824
3.4146319018404907
4.751242417409658
4.069712807989358
2.9900342006910656
3.8390763462849353
3.563925826306829
3.91743891938435
3.8873637314144256
3.627965235173824
3.3693445455186515
4.263100370308959
3.545875682935018
4.169061125584783
3.5759290360788016
3.2858599720159294
3.299840235173824
3.9374890446976334
3.48645580121156
4.193385795921488
4.268759459000539
3.831668938877528
3.5370561442647332
4.488154808633539
3.304435823409118
2.989440080108352
3.757819604105863
3.2232033304119194
3.3792385798257767
3.8820635958295617
3.8971960044045932
3.388834800391215
3.569825700290103
3.977965235173824
3.475791322130346
3.704888312096901
4.627965235173824
3.4057430129516018
3.5311065964303685
3.954888312096901
3.7320468678268854
3.8374246946332837
3.866601598810188
3.6041557113643004
3.95149464693853
3.4136795208881097
4.270822378030967
4.544631901840491
3.4871885361446977
3.343276239958513
3.986939594148183
3.181728676034039
3.270822378030967
4.127965235173824
3.5323769998797063
3.2595441825422453
3.8712807431952143
3.8406349184317428
4.094631901840491
3.0779652351738243
4.6827437899523785
4.159215235173824
3.2475304525651283
3.6835207907293794
3.3679652351738243
4.627965235173824
3.4214625989699576
3.8712084784170675
3.438310062760031
3.2629863322202377
3.928219688100033
3.9741190813276703
4.031191041625437
3.4652293861172203
3.727965235173824
3.400692507901097
4.833847588115001
3.527965235173824
3.704888312096901
4.428936108960232
4.106330619789208
3.4242615314701204
3.960133067341656
4.082510689719278
3.7015790019042254
3.6947668546070225
4.073911181119771
4.388834800391216
3.8429077639094564
3.5178461875547766
3.3455578277664166
3.535608547275735
4.181536663745253
3.443205318681131
3.9595803554487383
3.8777434073122445
3.5593377841934317
4.127965235173824
4.070272927481517
4.419631901840491
3.7193357935494586
4.412687457396046
3.244573009025414
RMSE: 0.9799094339835619