10152:
3.9655172413793105
3.125
3.953125
4.020408163265306
3.642857142857143
3.9846153846153847
4.25
2.952267303102625
4.25
3.743119266055046
4.15
4.15625
4.274193548387097
3.446886446886447
3.605714285714286
4.333333333333333
3.727272727272727
3.625
4.2105263157894735
3.5714285714285716
4.0
2.5150442477876105
4.333333333333333
3.6875
2.5833333333333335
3.1333333333333333
4.069767441860465
3.836734693877551
4.105263157894737
4.098039215686274
3.4
4.142857142857143
4.1
2.56140350877193
3.7422680412371134
3.8983050847457625
3.111111111111111
4.125
2.2857142857142856
3.510204081632653
4.16
4.125
3.967741935483871
3.473684210526316
3.9054054054054053
3.0833333333333335
3.85
3.75
3.25
4.475
3.709251101321586
3.5416666666666665
3.526315789473684
3.5
3.859375
2.8503401360544216
3.875
4.248366013071895
4.4
3.3333333333333335
2.5833333333333335
3.702127659574468
4.01360544217687
3.8795180722891565
3.6153846153846154
3.0
3.7153284671532845
4.166666666666667
3.4
4.2
3.8445945945945947
3.9767441860465116
3.312925170068027
4.578125
4.138888888888889
2.9705882352941178
3.9583333333333335
3.875
3.5555555555555554
3.0
3.9375
3.5121951219512195
4.480769230769231
3.735294117647059
3.2695652173913046
3.8222222222222224
3.861671469740634
3.1
3.6
3.5
4.116279069767442
3.8125
3.6538461538461537
3.9859154929577465
3.3333333333333335
4.0
3.652173913043478
3.878787878787879
3.1818181818181817
4.276785714285714
3.4
3.5555555555555554
3.735294117647059
4.352941176470588
3.493333333333333
3.75
4.071428571428571
3.717741935483871
3.4008620689655173
4.392857142857143
3.4680851063829787
3.4464285714285716
4.4
4.5
3.309090909090909
3.3092105263157894
3.4285714285714284
3.25
4.166666666666667
3.75
3.9313304721030042
3.676470588235294
3.533980582524272
4.0
3.6
3.5
3.36734693877551
3.388535031847134
3.2100456621004567
3.0925925925925926
2.625
4.051282051282051
3.9855072463768115
3.3
3.5492957746478875
3.3870967741935485
4.176470588235294
4.166666666666667
3.2142857142857144
3.3333333333333335
3.769230769230769
4.25
3.75
3.925925925925926
3.8823529411764706
4.090909090909091
2.3333333333333335
4.155555555555556
4.4
3.675
3.0
3.7480916030534353
3.411764705882353
2.896551724137931
4.451612903225806
3.857142857142857
3.68
3.7761194029850746
3.8260869565217392
3.310344827586207
3.725
3.888888888888889
3.6666666666666665
3.5217391304347827
3.622448979591837
3.3043478260869565
3.9361702127659575
3.539473684210526
3.4496644295302015
3.6666666666666665
3.5296610169491527
3.2083333333333335
4.114035087719298
3.781609195402299
4.310344827586207
3.375
5.0
3.752688172043011
3.7589285714285716
3.814814814814815
3.9655172413793105
3.513157894736842
3.1538461538461537
3.266318537859008
4.285714285714286
3.090909090909091
3.5853658536585367
3.9583333333333335
3.4161490683229814
3.299145299145299
4.2631578947368425
4.346938775510204
4.689655172413793
2.9
3.696969696969697
3.65
3.721030042918455
3.6704545454545454
4.5
4.078947368421052
3.3349514563106797
4.0
2.6
3.033333333333333
3.111111111111111
3.0833333333333335
2.9375
3.5
3.7857142857142856
3.0
3.315068493150685
3.4545454545454546
4.139130434782609
3.925
3.9285714285714284
3.8518518518518516
4.2631578947368425
4.081967213114754
4.153846153846154
3.375
4.25
3.12
3.806451612903226
3.6257928118393234
3.2540983606557377
3.923076923076923
3.515151515151515
3.789473684210526
3.272727272727273
3.2967032967032965
3.8754448398576513
4.166666666666667
2.8625954198473282
3.75
4.5
3.6666666666666665
3.6666666666666665
3.3636363636363638
3.9489795918367347
3.6153846153846154
3.6923076923076925
3.3185840707964602
3.75
4.1103896103896105
3.566666666666667
3.3
3.027027027027027
3.8181818181818183
4.333333333333333
4.0
2.8260869565217392
3.701195219123506
4.147058823529412
4.033333333333333
4.008
4.374149659863946
3.54320987654321
4.1
3.8
4.0
3.4857142857142858
4.317073170731708
10153:
3.1818181818181817
3.9210526315789473
3.066666666666667
3.4545454545454546
4.206896551724138
3.4423076923076925
3.732142857142857
3.1875
3.4
3.9563318777292578
3.4
2.5
3.966666666666667
3.6315789473684212
3.8333333333333335
3.526315789473684
3.7142857142857144
3.460905349794239
4.26530612244898
10154:
2.9473684210526314
3.6666666666666665
3.1724137931034484
2.8378378378378377
3.138888888888889
10155:
4.3283582089552235
4.050420168067227
2.4003690036900367
3.2661290322580645
3.392405063291139
3.7
3.9634146341463414
3.557603686635945
4.125
3.6231884057971016
4.0
3.125
3.358490566037736
4.526315789473684
3.4175824175824174
4.142857142857143
3.9029126213592233
3.0
3.8316831683168315
3.938775510204082
3.4224598930481283
3.375
3.0
3.044943820224719
4.147887323943662
3.4444444444444446
3.692857142857143
3.262857142857143
3.111111111111111
4.136363636363637
4.0
4.345132743362832
3.857142857142857
3.5454545454545454
3.1818181818181817
3.7094972067039107
3.6565656565656566
3.25
4.482300884955753
3.3225806451612905
3.58
3.7
4.200913242009133
4.545454545454546
3.660377358490566
3.140625
4.050279329608938
3.8237885462555066
10156:
3.5254237288135593
3.5555555555555554
4.2075471698113205
3.288
3.52
3.7058823529411766
3.6589147286821704
3.140625
4.166666666666667
3.2634730538922154
2.909090909090909
3.625
3.654135338345865
3.7
10157:
3.691358024691358
3.4
2.8740740740740742
3.707317073170732
3.7066246056782335
3.4444444444444446
3.7390243902439027
3.72
3.6315789473684212
4.083333333333333
2.727272727272727
4.444444444444445
4.5
3.141509433962264
4.25
4.066666666666666
3.4285714285714284
3.4065934065934065
3.455357142857143
2.7708333333333335
2.817034700315457
3.3333333333333335
4.138888888888889
3.26046511627907
3.35
3.217391304347826
4.0
3.2972972972972974
4.135593220338983
3.5833333333333335
3.3636363636363638
3.5076142131979697
4.333333333333333
3.7567567567567566
4.181818181818182
3.1666666666666665
3.446969696969697
3.0634920634920637
3.676470588235294
3.1778523489932886
3.6666666666666665
10158:
4.111731843575419
3.8956521739130436
3.0
3.6578947368421053
3.8095238095238093
4.36
4.333333333333333
4.2
4.042553191489362
3.5925925925925926
3.6153846153846154
3.7142857142857144
4.416666666666667
3.652173913043478
4.0
4.222222222222222
3.0
4.096774193548387
4.266666666666667
3.8095238095238093
3.8410041841004183
2.9696969696969697
3.28125
4.2
3.5
3.857142857142857
3.3652694610778444
4.15
3.3401360544217686
4.209677419354839
3.8857142857142857
4.238095238095238
4.058679706601467
3.727272727272727
3.6979166666666665
4.0
4.371794871794871
4.166666666666667
3.5846153846153848
4.833333333333333
3.8
4.904761904761905
3.9310344827586206
3.5
4.571428571428571
3.8
5.0
4.0
4.428571428571429
3.7142857142857144
4.622641509433962
4.647058823529412
3.5285714285714285
3.3333333333333335
2.6666666666666665
3.473684210526316
3.4
3.5833333333333335
3.5
4.1
4.2552301255230125
4.423076923076923
5.0
3.3
5.0
3.4
3.8181818181818183
3.8225806451612905
4.787610619469026
3.306122448979592
2.375
3.8043478260869565
3.727272727272727
4.0
3.9655172413793105
4.705882352941177
3.0983050847457627
3.909090909090909
3.7142857142857144
3.186046511627907
3.5
3.6417910447761193
4.1
4.0
4.5
4.6075949367088604
3.5833333333333335
4.049180327868853
3.9166666666666665
3.5714285714285716
4.0
4.2
4.407407407407407
4.203703703703703
4.0
5.0
3.6091370558375635
4.2
3.3962264150943398
3.6785714285714284
4.285714285714286
4.304347826086956
4.117647058823529
4.0
3.701492537313433
3.4764150943396226
2.9565217391304346
3.0
3.7294117647058824
4.254237288135593
3.7419354838709675
4.25
3.5
4.03921568627451
3.409090909090909
4.7
3.75
2.625
3.6
3.587719298245614
4.086956521739131
3.375
3.6923076923076925
4.0
3.880952380952381
4.0
4.367647058823529
10159:
4.0
4.2
5.0
3.782608695652174
3.861607142857143
4.266666666666667
5.0
4.636363636363637
4.304347826086956
4.1
3.5208333333333335
4.1891891891891895
3.4516129032258065
4.0
3.5714285714285716
3.861111111111111
3.769230769230769
4.444444444444445
5.0
4.111111111111111
3.6
4.142857142857143
4.5
4.333333333333333
5.0
4.256410256410256
3.727272727272727
4.6923076923076925
2.0
3.5555555555555554
3.443396226415094
3.5416666666666665
3.411764705882353
3.1666666666666665
4.0
4.0
4.217391304347826
4.636363636363637
4.574074074074074
3.75
3.8421052631578947
5.0
4.222222222222222
3.0
3.5454545454545454
4.0
3.7
4.631578947368421
3.5402298850574714
3.391304347826087
4.333333333333333
1016:
1.6666666666666667
10160:
4.8
3.727272727272727
10161:
3.238095238095238
3.64
3.772727272727273
4.714285714285714
4.150943396226415
10162:
3.0
3.6666666666666665
4.5
3.8333333333333335
3.3333333333333335
4.181818181818182
3.6666666666666665
4.0
3.104651162790698
4.136363636363637
4.166666666666667
4.0
4.5
4.333333333333333
3.9166666666666665
4.2
3.739130434782609
5.0
4.0
4.5
2.75
4.0
4.222222222222222
4.625
4.333333333333333
4.142857142857143
3.896551724137931
4.297872340425532
2.7777777777777777
3.375
4.5
3.5555555555555554
4.0
4.0
4.0
4.5
3.5
3.7222222222222223
3.238095238095238
4.25
3.3333333333333335
4.6
4.25
3.8333333333333335
4.5
3.5
4.0
3.5
4.5
4.0
4.0
3.4285714285714284
3.35
4.1875
4.466666666666667
4.285714285714286
4.0227272727272725
5.0
3.5
2.2
4.55
4.666666666666667
3.3333333333333335
3.2857142857142856
4.7272727272727275
4.111111111111111
4.5
4.230769230769231
3.4523809523809526
3.847058823529412
5.0
4.909090909090909
5.0
4.4
4.095238095238095
4.333333333333333
4.1
4.311475409836065
3.4
3.6
3.75
4.333333333333333
3.7058823529411766
4.285714285714286
3.466666666666667
3.838709677419355
3.6666666666666665
3.6666666666666665
4.0
3.6666666666666665
3.948717948717949
4.1923076923076925
5.0
3.25
4.333333333333333
3.5
3.7868852459016393
3.3380281690140845
4.2894736842105265
4.785714285714286
3.6
3.95
3.3333333333333335
4.647058823529412
3.230769230769231
4.142857142857143
3.5454545454545454
3.4
3.8
3.5
3.9166666666666665
5.0
3.6875
4.0
4.0
4.583333333333333
4.25
4.380952380952381
4.875
3.5
3.3
4.05
3.8
3.4615384615384617
4.4
3.2857142857142856
4.0
4.0
4.6
3.5
2.8333333333333335
4.583333333333333
2.909090909090909
4.6
4.0
3.2857142857142856
3.90625
4.238095238095238
4.333333333333333
3.272727272727273
3.5714285714285716
4.153846153846154
4.049180327868853
3.5
3.627906976744186
3.5925925925925926
4.222222222222222
3.176470588235294
5.0
3.7142857142857144
4.0
3.576923076923077
3.0
3.357142857142857
3.888888888888889
5.0
4.416666666666667
4.466666666666667
3.7142857142857144
3.25
3.5
4.0
1.7142857142857142
3.7058823529411766
5.0
10163:
3.1219512195121952
4.0
10164:
4.0
5.0
3.3333333333333335
3.0
4.9393939393939394
3.892857142857143
4.0
5.0
3.8
5.0
4.714285714285714
3.8333333333333335
2.3333333333333335
3.411764705882353
5.0
4.073529411764706
4.0
5.0
5.0
3.875
4.0
10165:
3.9767441860465116
2.475103734439834
3.48
3.95
3.102803738317757
4.0
3.3949579831932772
2.2142857142857144
4.52
3.116279069767442
3.536764705882353
3.760869565217391
3.5294117647058822
3.0638297872340425
10166:
3.242690058479532
4.1875
3.4545454545454546
4.117117117117117
2.6666666666666665
3.392857142857143
10167:
5.0
3.5384615384615383
3.2
10168:
3.9411764705882355
2.8846153846153846
2.5
3.411764705882353
3.2888888888888888
3.85
3.5
3.4444444444444446
3.575
3.3055555555555554
3.2388059701492535
4.089635854341736
3.0
3.75
3.909090909090909
3.6785714285714284
4.538461538461538
3.5689655172413794
3.196078431372549
4.5
3.967741935483871
3.6666666666666665
3.5294117647058822
2.2325581395348837
4.084158415841584
3.8484848484848486
2.933333333333333
3.625
3.8701298701298703
3.686046511627907
3.8823529411764706
3.8181818181818183
3.9565217391304346
3.608695652173913
3.057142857142857
4.25
4.484210526315789
3.5272727272727273
4.128205128205129
4.073170731707317
4.043478260869565
3.9411764705882355
2.5714285714285716
3.8529411764705883
2.603550295857988
4.2
3.8433734939759034
3.3557046979865772
4.105263157894737
3.4146341463414633
3.925925925925926
4.666666666666667
3.4
3.925925925925926
3.5833333333333335
3.4166666666666665
3.235294117647059
3.5
3.7
2.6666666666666665
3.537313432835821
3.75
4.75
4.225
3.4680851063829787
3.3435374149659864
2.2857142857142856
4.642857142857143
4.285714285714286
3.9
3.1372549019607843
4.3
3.5128205128205128
3.6666666666666665
2.8333333333333335
3.4545454545454546
3.5
3.076923076923077
3.9130434782608696
2.6666666666666665
4.5
3.9285714285714284
3.3333333333333335
3.2202643171806167
4.487179487179487
3.95
3.5714285714285716
4.818181818181818
3.6206896551724137
4.211111111111111
2.767123287671233
3.6129032258064515
4.385542168674699
2.8974358974358974
3.8333333333333335
2.843283582089552
4.627906976744186
3.761904761904762
3.9298245614035086
4.096774193548387
3.0625
4.134146341463414
3.8863636363636362
4.842105263157895
2.7333333333333334
4.0
3.6666666666666665
3.4274193548387095
3.911764705882353
3.5
3.8333333333333335
4.478260869565218
3.8795180722891565
4.176470588235294
3.883720930232558
3.544378698224852
4.7
3.6315789473684212
3.8260869565217392
3.1265822784810124
3.45
4.044444444444444
3.5273972602739727
3.0441176470588234
3.5285714285714285
3.5
3.2884615384615383
3.6779661016949152
3.2142857142857144
3.3168316831683167
3.7642276422764227
3.838709677419355
4.25
3.642857142857143
3.272
3.7724425887265136
3.88
4.138888888888889
3.7
4.132231404958677
3.738095238095238
4.013333333333334
2.522727272727273
3.9583333333333335
3.3867924528301887
4.0
4.111111111111111
3.918918918918919
3.5
3.1
3.6379310344827585
4.25
3.508771929824561
4.333333333333333
4.511400651465798
4.056179775280899
4.0
3.5
3.5483870967741935
3.625
3.75
3.210526315789474
3.409090909090909
3.7333333333333334
3.3846153846153846
3.6826923076923075
3.6341463414634148
3.58974358974359
3.3333333333333335
2.0
3.5384615384615383
3.896551724137931
3.4128440366972477
4.1313131313131315
3.309090909090909
2.6875
4.043478260869565
3.9
3.8068181818181817
4.420289855072464
3.09
2.3333333333333335
3.6165413533834587
3.95
3.7872340425531914
4.647058823529412
3.9523809523809526
3.6284722222222223
3.5090909090909093
4.363636363636363
3.247311827956989
3.2666666666666666
3.63953488372093
4.111111111111111
3.4482758620689653
4.041666666666667
RMSE: 0.9281317466481184
