2683:
2.99952507017
2.83187453889
4.10666792732
3.69273350109
11057:
3.50706369007
3.95287633776
3.72495297286
3.35719814275
3.44074244655
3.29074244655
3.35907042082
3.07397944077
12591:
3.62457640805
3.10469004441
3.41699099982
3.20094004441
3.32154610502
3.30331292577
3.54184771264
4.27376055723
3.66094004441
3.15379718727
3.73594004441
3.11991440339
2.76094004441
3.28042056389
3.28835025235
3.04665433012
2.95434978653
3.83079298559
3.77157834228
1.62278214967
3.09427337774
3.50396793286
3.21721380867
3.35184913532
3.71582726246
3.37384327022
3.33236861584
3.88997230248
2.82760671108
3.61388122088
14147:
3.30422874378
3.59267582994
4.39946683902
3.52831095355
4.06437814723
3.47565838075
3.12244737158
3.65149935935
3.28028723814
3.97074818564
3.7070549149
3.98954967381
3.34846905632
3.9282289191
4.02695723481
3.88805849913
3.90149935935
3.67031656365
3.20940336639
3.91233802317
3.67714038499
3.81461992672
4.07895033974
3.7705469784
3.67672458457
3.58828096854
3.88483269268
3.72557343342
3.65983269268
3.22531193958
1527:
3.67731988518
2.35344281662
2.95701337177
2.5795421074
2.78082064621
2.23287544073
1.5245421074
3.47573258359
792:
3.23877748443
3.10946567474
2.42317008298
2.93899393464
2.17442810831
3515:
3.40345694037
3.41979742169
3.68137489399
3.13477782865
2.86947006441
3.28642512478
2.61789064202
3.46715534791
3.3693441304
3.73097950712
3.99905261386
2.7195697465
3.61789064202
3.67987196983
2.88528754924
3.35261767842
2.92381169466
3.38078746742
3.40724249388
2.64598297652
3.00854968342
2.53791491387
2.42635838396
3.86308294972
3.4767665634
3.61677678064
3.46448155112
3.32283250249
3.95627169929
3.30511500807
17699:
3.91033255367
2.99859420242
4.00650655787
4.66769485867
4.31311033145
3.76332294662
3.38037940776
3.65758037754
2.82314724885
3.65463248945
4.11662203714
3.77739604574
4.42208469043
3.25541802376
3.20722797851
2.98894765203
4.09759309007
3.14003340838
3.9202531886
3.75261470463
3.71912056163
3.12117484758
2.77042740462
3.16311033145
3.38562115396
3.88977699812
3.51699027289
3.43067789902
3.69501217194
3.40353586337
4593:
2.87803066044
3.65543050927
3.95951214193
3893:
3.82612351553
3.23884167972
3.74845706433
4.20175376763
3.24540456128
3.62839469427
3.44725991711
3.73349979938
3.35645925172
3.80549110609
3.61733818321
3.43899468584
3.63657308543
4.04461091049
2.89038555837
3.67117341049
3.33241578854
2.82440889028
3.29197933154
3.27318233906
3.75664794752
3.87018635806
3.57138686677
4.7059970491
3.68149034311
3.96225796931
4.19845706433
3.36161771321
3.77244596203
3.1559316652
9271:
3.53306242272
4.32035186424
3.40785602559
3.97165127289
3.32379413004
3938:
4.25357394206
3.98744821466
4.47044141194
4.26425584493
3.54424214995
4.72886837823
4.60292004442
4.05225959376
4.33451908185
3.30502787811
4.61750023547
1.87044141194
3.70169141194
4.69624786356
4.23255594939
4.21182072229
4.44718559799
3.78104747255
4.3965952581
4.24821918972
4.54736448887
4.34544141194
4.27044141194
4.26806045956
3.85772464894
4.36405843322
3.79476573627
3.47044141194
4.85072310208
3.97837791988
15843:
3.77586816355
4.01470028725
3.90329576505
3.37951643721
3.80386564717
2.70658410639
3.12575703872
3.29837608634
3.11995728292
4.11454366044
3.14886628241
3.59631234548
3.47561489231
2.94020048171
3.74427160872
3.01346617643
3.32647686153
3.13241563436
3.84494471379
3.05237152013
3.16436707733
4.590042753
3.72119029399
3.04374645671
2.95211171852
2.933792753
3.92966539451
2.78561470872
3.37951643721
3.48920241687
8159:
3.49752342105
4.02130010413
3.83657104009
3.31401464912
4.44011849934
3.20470290822
3.48835675438
3.8812661111
4.34497440144
3.7960180447
2.86903857256
3.44620559159
3.98301014671
3.13036205473
3.57466627819
3.61085675438
2.69085675438
3.55858871314
3.58419008771
3.47585675438
3.72942818295
3.47021159309
3.83443884393
3.51661017904
4.08657104009
3.55550071723
4.15550791717
4.11752342105
3.52945597617
3.57915864117
10382:
4.10847684899
3.49808639627
3.41843160012
3.30192870606
2.97469758477
3.6827368682
3.46745120796
3.95940877128
3.41206980775
12449:
2.25185423789
2.45725964329
1.17008015611
2.38981778283
2.40761627667
223:
5.40865003942
4.73351897782
5.27452057399
4.54882749559
4.34546045045
3.99862886793
4.40167373973
4.75931262861
4.05004377427
4.30287988008
3.77716977147
4.45814303797
4.12404692813
4.31080314352
3.52474472738
3.94007548102
3.92994754925
4.61660110976
4.81368615107
4.3353024115
4.36061981816
3.91804278734
4.63844175774
4.05839863236
4.69498514323
4.29871831337
3.60092019363
3.55981767912
4.52443217854
11126:
3.78953532314
4.19457325072
3.53392804425
3.68086134507
4.42258854443
3.9880647349
4.55750917935
3.12100124284
4.77095947174
4.33770241606
4.77693028112
4.36140910576
3.84009176193
4.2130647349
4.37725687464
4.80174398018
4.2130647349
4.13221367107
4.62100124284
4.82735044919
3.32620146412
3.80914316627
4.18727398064
4.8530647349
4.51470407916
4.38190895601
4.25284968114
3.99315523264
3.72596796071
4.94639806824
16233:
3.77086834095
3.45268652277
3.8150805596
3.52086834095
4.10420167429
3.59463883276
3.89112782199
3.37329124844
4.02086834095
3.47113012106
3.3741021718
3.1030312623
3.44022317966
4.06832596807
3.29086834095
3.88309056318
2.54422862846
4.12682860585
3.10420167429
3.2690697798
3.45507886727
3.37240417713
4.37380951742
3.72696153092
3.99705881714
3.16105525684
3.62476444485
4.50003500762
3.72086834095
4.3464497363
5497:
3.61887452736
3.823947877
3.78847354537
3.35128193477
3.79809139483
3.88887452736
4.65260468609
3.00171660416
3.82647039757
4.03045989322
4.44417755767
3.26054119403
3.9734663641
4.02096812342
3.30619406538
3.91799904098
3.92544528942
4.06144209493
3.65975785609
3.98456601673
4.20579505716
3.82148048384
4.14940151965
4.31036127908
3.44955634555
4.2178913813
4.15911057887
4.30156683506
4.05841998191
3.58923107794
15997:
4.11634084887
4.10449043605
4.48185809025
4.19210519342
3.28009726853
1.713157825
3.83073057483
3.79847251031
4.44282815467
3.88938160122
4.04055626925
4.02249848434
4.57469628653
3.98678419862
4.17371428981
4.35567640302
4.49777320961
3.51059372243
3.94943164292
4.15345086529
4.69175314272
3.63281594465
3.32119978304
4.01668756765
4.28142705576
3.71101566336
3.70337406037
4.18450676591
4.16157411459
3.28228322015
9676:
2.73830712146
3.82548660864
3.29654360919
3.2335939689
3.36117387219
2.10553120172
2.82762680715
7008:
3.64239265164
2.81134242333
2.5618474224
3.09693810619
3.05905931831
3.35937378372
3.70036366614
2.34703400185
8741:
3.24404541469
2.79362524663
3.73333112898
3.55833112898
7617:
2.21025219319
3.02843401138
3.26696612147
3.52843401138
4.05418508434
4.02235498402
4.26176734471
3.82191227225
3.76372812902
3.81414829709
4.91732290027
1.87458785753
4.07843401138
3.93319591614
3.95700543995
4.2506562336
3.54347160536
3.47209598321
2.66001295874
3.88557686852
3.62102660397
3.89799922877
4.09093401138
3.23896032717
4.33612631907
3.88557686852
2.81790769559
4.44019871726
3.50462448757
4.31934310229
12971:
2.79671127929
3.01055584954
2.78281464793
2.49777302303
1.98033196894
3.36567679653
3.13522887616
6327:
3.73616336316
3.79897124494
3.50718870878
3.67066247401
3.59137571837
2.91759193459
4.28775066475
3.33390772406
3.04618842582
3.08607294725
3.55265477122
3.33660677939
2.93521431221
3.3866853666
3.713421531
2.76236580394
3.31489352189
3.27650385169
3.39352943459
3.78418056335
3.17968495785
2.6486950206
3.06893893313
4.25759193459
3.47425860126
4.62577375277
8349:
3.20077578603
3.6620377267
3.59673538199
2.5885535638
3.66081162832
4.07280135141
3.5650862054
3.8731481584
4.07426784952
4.11695135386
3.74481653958
4.2856157107
3.6848035638
2.75932279457
2.96113783347
3.58534643686
3.56559060084
4.11365994678
4.22043548262
3.01485493367
3.44477696806
4.31887614445
3.81286728929
3.58063689714
3.94283927809
4.0785535638
3.4016500105
4.08410911936
3.5285535638
4.32679917784
5238:
2.93074298721
16160:
0.934655758694
1.72052679572
15122:
3.22957154345
3.19323284211
3.51916430363
3.01409894415
2.75274511459
3.1090223158
3.53889988516
4.20739959774
3.27436666312
2.79750002816
7786:
4.39234722977
4.40766189836
4.48613352478
3.61678126568
3.72046679877
2.55517365067
4.33979206137
4.13044246787
3.5637758012
4.09908933256
3.32885516628
4.06884826497
4.17710913454
3.78088494575
3.51933135676
3.54710913454
3.4268801269
3.59319852001
3.9637758012
3.98941682684
3.53953337696
4.24155357898
3.73896959965
4.59085913454
4.18282342025
3.77109757384
3.8503006239
3.22018605761
4.43996627739
3.64457835478
1921:
2.79990969095
2.34642145032
17692:
2.93865421142
3.26968869418
2.67147897551
2.65213144227
3.93379125828
2.37668170117
4.05261552345
2.74968869418
3.97838434635
2.92041333186
3.48079980529
2.68592801042
2.8433729047
3.68901642527
3.70302202751
2.68440950636
3.32802202751
3.20956310548
2.99468869418
3.19826012275
2.5919109164
4.07557104712
3.16815808193
3.21318224635
2.91254583703
2.63693007349
3.52919789663
3.96343869418
2.99697993654
3.27716900914
16290:
2.25856635676
6519:
2.98936170189
3.91838881512
3.30425477398
3.30128557938
3.97111608785
3.69111608785
3.69111608785
2.69111608785
3.39111608785
3.5514102055
3.94111608785
3.78328198647
3.16095735769
3.35166654657
16765:
4.22742777147
3.30641327872
3.99450851681
2.67090603234
4.24307994538
3.36522870571
3.77156479387
3.88736565967
4.65992205065
2.96229563166
2.35704220953
4.14974661205
3.37762539993
4.27692609923
3.21747246875
4.07051584282
3.98022280253
4.0442920666
3.87307994538
4.06474661205
3.76701058122
2.62665745816
3.8389848814
3.81196883427
3.2092434674
4.42307994538
3.70249171009
4.11538763769
4.08307994538
4.05944358175
8970:
3.62730018047
3.70163646366
4.64249005389
4.14158589476
4.22086078653
3.84709967922
3.56090341934
3.69878455547
4.0338164712
3.95715092674
5397:
4.22018539365
4.14108934845
4.42512690714
3.27705426073
3.8831904543
3.14749960486
3.87918458655
3.61354848136
3.09598231481
3.22442268179
2.66442268179
4.04442268179
4.12652058389
5962:
2.42365460706
3.52540191889
2.9523756031
2.62248275721
2.69067969667
3.45334309536
3.93921770836
3.15070679694
2.14623525222
2.67605981363
2.44623525222
3.09644622269
15163:
4.2955290374
3.58074642871
3.99872231471
3.39390741578
4.22981475169
3.5809032484
3.4217790374
3.5909258628
3.65478137385
4.09780751841
2.7921787836
4.0555290374
3.92681935998
3.92063852645
4.34886237074
3.42413118794
3.70566988247
3.44163741179
4.23380314908
3.70124332312
3.67868693214
2.81121249064
3.20420828269
4.68219570407
4.93025771957
3.76962739806
4.30124332312
3.73194694785
4.2967790374
3.1043962249
12797:
2.90030586989
4.21131953155
2.75952502064
3.49618347713
2.54870005338
3.60278520873
4.13013838652
695:
2.34455954685
2.95229105845
2.8653506219
2.79864281989
2.47102657649
2.01182538201
11902:
3.34399521808
3.25236055559
3.51635546653
3.08542161439
3.26635546653
3.52722503175
3.28968879986
2.87792571447
2.9550079488
3.63592068392
3.23510546653
3.06422780696
2.58101063895
3.68201811713
3.5470783581
16621:
3.98236928478
2.63134626688
2.58074656673
2.48640033883
8198:
3.48513314631
3.12478265343
3.08291263405
2.95369831608
3.72945132813
3.04195132813
11337:
4.35162514323
4.39924419085
4.1702586836
3.4371929088
3.73085931113
3.66841085752
4.45517260248
2.97895433578
3.41108852249
4.33428146455
4.55906154245
3.73786852948
4.23612362348
3.98179870799
3.73257752418
3.98179870799
3.36002850458
3.35757752418
4.74238144575
3.15002300705
3.20005719898
3.83733942895
3.83061673987
3.56591085752
4.50341085752
3.61814966349
4.56591085752
3.6699624229
3.87543466704
3.66180126848
442:
3.94592550142
4.0355382696
3.39010936633
5.02473394787
4.15191995741
4.29706510256
4.39445429503
4.48225028774
3.54868785933
4.38502806552
3.76760382309
4.18366442915
4.51928732478
4.29551193649
4.83897543394
3.97267174368
4.62366442915
4.13919473218
4.49812330361
4.18960553031
3.55690306552
4.46002806552
4.24232895047
4.19812330361
4.22211337357
3.48036704857
4.31359949409
3.84238100669
4.42450174973
3.9449020151
4293:
2.79411903553
2.64280324606
2.51394662174
2.70710440413
2.01884581149
2.77765738575
2.72844106943
2.37601558725
17238:
2.10165627231
3.10998960564
2.70557784093
2632:
2.80850921663
3.20349354265
2.56963199135
4296:
2.76747311229
176:
1.85966062914
2.49306914155
2.49641151706
3.28256536321
3.61725672124
4.02734797191
3.44926318253
3.43739294942
3.65572325795
3.51983809049
3.81945611952
3.40133030345
2.51478758544
3.43467062637
3.3928569084
2.93453427513
3.443831186
3.09256536321
3.08093745624
15259:
2.84935635547
3.33708283122
3.75021842444
3.44476729662
3.04829534752
1.83733963656
2.98419278341
3.65463018914
2.70326720493
5722:
3.28810799887
3.16795061389
2.55589788319
3.22386333549
2.77247743243
3.55896914707
12145:
3.08899871849
3.70916678572
3.90916678572
3.71815151169
3.60160043902
3.18842945853
3.61557072661
3.78114061342
3.1811824413
3.58288880838
3.13141243675
3.49754536984
3.70076342438
3.78923591014
2.70916678572
4.4134857226
3.56920539576
4.1312447078
3.06734483955
3.60916678572
3.90413374047
3.48564624294
4.00973255658
3.72839030626
3.52570298924
3.48277034479
3.31306288962
3.99488107144
3.95979335214
2.77488107144
7672:
3.06398663424
2.37959316079
3.15041414966
3.11444588637
3.19324239696
3.05766801286
1848:
3.23592779706
3.85610827286
4.49378943228
3.79051390241
4.43664657513
3.82712276561
3.32137563917
3.00564438346
4.16045609894
3.3302674197
3.78930763956
4.32174642152
3.96814840664
4.30679756236
3.72762027805
3.27950371799
3.25347935476
3.37054013256
3.70393435981
3.54934498783
3.73163963239
3.20401438115
3.84795609894
3.88197508629
3.44617038466
4.35610827286
4.11790290745
4.19891763741
3.29681973531
4.21480392503
11572:
1.12242374066
1.78952279727
2.30564121832
1.64787675766
2.1916061306
2.18554552454
1.00827279727
3.43080366146
2.13784268974
1.90372734272
2.67077279727
2.21581469671
767:
2.97112162648
2.92496778033
2.59384889921
3.39940445477
3.47397876934
2.71846723862
3.66082262316
3.04255019791
3.27700397943
2.86982292519
3.72588353125
3.15807814822
3.80189085725
2.52194129862
3.50862162648
3.66635972172
2.67826448363
15786:
3.27688674657
3.66317985379
3.48706479419
3.77725171008
4.37725171008
3.58164910421
3.15494401777
4.28350171008
3.40130418821
4.63975171008
3.82422140705
3.08558504341
3.53634261917
3.49543352826
3.02969073447
4.04449308939
3.59391837674
4.31955940239
4.46058504341
3.43280726563
3.67010885293
3.92412671008
3.76066816893
3.65106123389
3.81229108016
4.0224130004
3.63731882417
2.94543352826
3.31517117316
3.36588807371
RMSE: 0.916912787727
